{
  "schemaVersion": 1,
  "id": "examplemod",
  "version": "${version}",

  "name": "${mod_name}",
  "description": "${description}",
  "authors": $authors,

  "contact": {
    "homepage": "${homepage}",
    "sources": "${source}",
    "issues": "${issues}"
  },

  "license": "LGPL",
  "icon": "icon.png",

  "accessWidener": "examplemod.accesswidener",

  "environment": "*",
  "entrypoints": {
    "main": [
      "${group}.fabric.FabricMain"
    ]
  },

  "mixins": [
    "examplemod.fabric.mixins.json"
  ],

  "depends": {
    "fabricloader": "*",
    "fabric-api-base": "*",
    "distanthorizons": "*",
    "minecraft": $compatible_minecraft_versions,
    "java": ">=${java_version}"
  },

  "custom": {
    "modmenu": {
      "links": {
        "modmenu.discord": "${discord}"
      }
    }
  }
}
